<svg width="1439" height="315" viewBox="0 0 1439 315" fill="none" xmlns="http://www.w3.org/2000/svg">
<path opacity="0.5" d="M0 314.97H1439.49L1438.5 130.5C1438.5 130.5 1242.07 72.9086 1119.89 53.8776C820.108 7.18142 701.68 -19.1738 432.978 19.374C164.277 57.9218 0.74986 189.028 0.74986 189.028L0 314.97Z" fill="#D5FFCB"/>
</svg>
