<svg width="100" height="100" viewBox="0 0 100 100" fill="none" xmlns="http://www.w3.org/2000/svg">
<circle cx="50" cy="50" r="49.5" stroke="#BBE4B6" stroke-dasharray="5 5"/>
<g clip-path="url(#clip0_258_58)">
<path d="M24.9993 19.9999C25.1995 19.9999 25.3951 19.9999 25.5953 19.9999H63.2595V42.78H61.9904V21.3094H61.2854C49.8678 21.3094 38.4487 21.3094 27.0281 21.3094C26.5095 21.3094 26.3593 21.4463 26.3593 21.9755C26.3593 38.0959 26.3593 54.1997 26.3593 70.2867V70.9163H53.2567V72.2393H24.9902L24.9993 19.9999Z" fill="#008C00"/>
<path d="M51.2599 55.573C51.2531 54.0628 51.5467 52.5663 52.1234 51.1713C52.7002 49.7763 53.5487 48.5108 54.6191 47.4487C55.6895 46.3866 56.9602 45.5492 58.3572 44.9857C59.7542 44.4222 61.2493 44.1439 62.7548 44.167C65.7653 44.2007 68.6397 45.4305 70.7477 47.5866C72.8556 49.7427 74.0248 52.6492 73.9994 55.6688C73.9753 58.6883 72.7586 61.575 70.6157 63.6961C68.4729 65.8171 65.5788 66.9993 62.5682 66.9835C61.0781 66.9811 59.6031 66.6838 58.2277 66.1087C56.8523 65.5336 55.6036 64.6919 54.5531 63.6319C53.5026 62.5719 52.671 61.3145 52.1059 59.9315C51.5408 58.5486 51.2533 57.0675 51.2599 55.573ZM62.632 65.6969C65.3036 65.6813 67.8608 64.6067 69.7457 62.7076C71.6307 60.8085 72.6905 58.239 72.694 55.5593C72.6808 52.8794 71.6091 50.3139 69.7137 48.4249C67.8184 46.5359 65.254 45.4773 62.582 45.4809C59.9105 45.4978 57.3546 46.5763 55.4744 48.48C53.5943 50.3837 52.5432 52.9573 52.5517 55.6368C52.5756 58.3062 53.6469 60.8587 55.5335 62.7416C57.4202 64.6245 59.9704 65.6862 62.632 65.6969Z" fill="#008C00"/>
<path d="M30.0684 25.0368H48.3818V43.437H30.0684V25.0368ZM31.3373 26.3417C31.3373 26.5334 31.3102 26.6748 31.3102 26.798C31.3102 31.7466 31.3102 36.6969 31.3102 41.6486C31.3102 42.1048 31.4829 42.1823 31.8832 42.1778C36.7596 42.1778 41.639 42.1778 46.5214 42.1778C46.7125 42.1778 46.9034 42.1778 47.1036 42.1504V26.3235L31.3373 26.3417Z" fill="#008C00"/>
<path d="M59.7902 68.5302H61.0411C61.0411 68.7628 61.0684 68.9864 61.0684 69.1825C61.0684 71.7877 61.0684 74.3883 61.0684 76.9934C61.0684 78.3256 62.3102 79.1012 63.3837 78.4671C63.6363 78.3202 63.8423 78.1049 63.9783 77.8459C64.1143 77.5868 64.1747 77.2945 64.1525 77.0025C64.1525 74.4202 64.1525 71.8334 64.1525 69.2465V68.5484H65.4398C65.4398 68.7035 65.4807 68.845 65.4807 69.0047C65.4807 71.7193 65.4807 74.4294 65.4807 77.1394C65.4878 77.8477 65.2312 78.533 64.7608 79.0613C64.2905 79.5896 63.6404 79.9227 62.938 79.9954C62.2084 80.0784 61.4752 79.8756 60.8912 79.4293C60.3072 78.983 59.9175 78.3276 59.8037 77.6001C59.7833 77.4734 59.7742 77.3453 59.7764 77.217C59.7764 74.4522 59.7764 71.6859 59.7764 68.918C59.7673 68.8085 59.7811 68.7035 59.7902 68.5302Z" fill="#008C00"/>
<path d="M47.7443 55.0528V56.3166H30.7227V55.0528H47.7443Z" fill="#008C00"/>
<path d="M30.7051 50.9832V49.7741H47.7312V50.9832H30.7051Z" fill="#008C00"/>
</g>
<defs>
<clipPath id="clip0_258_58">
<rect width="49" height="60" fill="white" transform="translate(25 20)"/>
</clipPath>
</defs>
</svg>
