<svg width="100" height="100" viewBox="0 0 100 100" fill="none" xmlns="http://www.w3.org/2000/svg">
<circle cx="50" cy="50" r="49.5" stroke="#BBE4B6" stroke-dasharray="5 5"/>
<g clip-path="url(#clip0_258_65)">
<path d="M45.9777 26.0205C54.5047 26.0205 63.0317 26.0493 71.5587 26C73.7161 25.9877 75.1359 27.5132 75.0516 29.7323C74.9561 32.3946 75.0311 35.0672 75.0516 37.7285C75.0516 37.8619 75.2479 38.0681 75.3917 38.1122C75.9619 38.2866 76.5454 38.4251 77.13 38.5482C77.6508 38.659 77.8563 38.9411 77.8625 39.4807C77.8799 41.0597 78.1706 42.5739 79.1322 43.883C79.4877 44.3768 79.9372 44.7958 80.455 45.116C80.9727 45.4362 81.5485 45.6514 82.1496 45.7492C82.8584 45.8785 82.9961 46.0272 82.9961 46.7218C82.9961 51.9961 82.0715 57.0837 79.9089 61.9189C78.3823 65.325 76.2475 68.293 73.2394 70.5367C72.0066 71.4601 70.5991 72.1659 69.2399 72.9148C68.9944 73.0503 68.5536 73.0092 68.2762 72.8861C66.2568 71.9864 64.4068 70.7476 62.8067 69.2235C61.077 67.588 59.635 65.6736 58.5411 63.5604C58.3541 63.2003 58.1065 63.1582 57.7583 63.1582C45.3116 63.1644 32.8652 63.1668 20.4192 63.1654C18.3008 63.1654 17.0146 61.8984 17.0146 59.7932C17.0146 49.657 17.028 39.5208 16.9961 29.3856C16.99 27.5522 18.194 26.3663 19.3364 26.1211C19.6539 26.0572 19.9772 26.0259 20.3011 26.0277C24.8899 26.0222 29.4787 26.0222 34.0676 26.0277H45.9745L45.9777 26.0205ZM73.6822 37.6946C73.6986 37.4679 73.7191 37.3191 73.7191 37.1703C73.7191 34.5029 73.7191 31.8372 73.7191 29.1732C73.7191 28.1022 72.9497 27.3399 71.8699 27.3378C70.1768 27.3327 68.4797 27.3378 66.7907 27.3378L32.7012 27.3327C28.6432 27.3327 24.5858 27.3327 20.5292 27.3327C18.9728 27.3327 18.3378 27.9606 18.3368 29.5005C18.3368 34.9161 18.3368 40.3326 18.3368 45.7502C18.3368 50.4497 18.3368 55.1498 18.3368 59.8507C18.3368 60.7801 18.7056 61.4368 19.4474 61.6881C19.8227 61.7999 20.2137 61.8505 20.6052 61.8379C32.7608 61.8454 44.9161 61.8471 57.071 61.843H57.6442C57.3812 61.1915 57.1305 60.618 56.9158 60.0312C55.3654 55.7872 54.5858 51.3009 54.6136 46.7833C54.6136 46.0303 54.7163 45.8949 55.4539 45.7574C56.5275 45.5522 57.4511 45.0823 58.1867 44.2575C59.3989 42.8971 59.6856 41.228 59.7636 39.5023C59.7873 38.9771 59.9372 38.6816 60.4715 38.5564C62.9371 37.9737 65.3873 37.3653 67.8468 36.7764C68.4437 36.6338 69.0427 36.5517 69.6611 36.7343C70.3659 36.9395 71.0861 37.0965 71.8011 37.2668C72.4124 37.4084 73.0236 37.5438 73.6822 37.6946ZM61.1382 39.7413C61.017 40.4749 60.942 41.1776 60.7807 41.8527C60.189 44.3539 58.8287 46.1934 56.248 46.9208C55.8731 47.0234 55.9398 47.2635 55.9398 47.5077C56.0662 52.4783 57.0011 57.2704 59.1421 61.7886C61.132 65.9868 64.059 69.3108 68.2496 71.4468C68.6163 71.6345 68.9266 71.6519 69.3047 71.4621C71.6376 70.2965 73.704 68.6618 75.3742 66.6608C77.4104 64.2314 78.8189 61.4562 79.8124 58.4646C80.9989 54.8882 81.5866 51.2103 81.6729 47.4471C81.6811 47.1055 81.5701 46.9762 81.2558 46.888C79.8373 46.5028 78.6183 45.5942 77.845 44.3458C77.0231 43.0603 76.6728 41.628 76.5556 40.1302C76.5341 39.8511 76.4591 39.729 76.1591 39.6593C73.8301 39.1166 71.5072 38.5441 69.1803 37.9921C68.9659 37.9374 68.742 37.9311 68.5249 37.9737C66.0695 38.5523 63.6172 39.1473 61.1382 39.7413Z" fill="#008C00"/>
<path d="M31.5988 44.0061C30.1102 44.0061 28.6195 44.0061 27.1339 44.0061C26.0367 44.0061 25.2642 43.2336 25.2601 42.1359C25.2505 39.967 25.2477 37.7979 25.2518 35.6284C25.2518 34.2741 25.9515 33.5837 27.3168 33.5765C30.1886 33.5669 33.0594 33.5642 35.9291 33.5683C37.1866 33.5683 37.9232 34.2659 37.9366 35.5248C37.9605 37.7271 37.9605 39.9308 37.9366 42.1359C37.9253 43.2757 37.1537 44 36.0103 44.0051C34.5391 44.0123 33.0679 44.0051 31.5927 44.0051L31.5988 44.0061ZM31.605 42.6878H35.8171C36.4931 42.6878 36.6277 42.5616 36.6297 41.8835C36.6345 39.8152 36.6345 37.7466 36.6297 35.6776C36.6297 35.0323 36.4818 34.8917 35.8459 34.8907C34.048 34.8907 32.2502 34.8907 30.4523 34.8907C29.4085 34.8907 28.3647 34.8815 27.3209 34.8907C26.6881 34.8969 26.5607 35.0323 26.5617 35.6386C26.5679 37.7418 26.5754 39.8443 26.5843 41.9461C26.5843 42.578 26.7025 42.6857 27.3425 42.6868C28.7637 42.6888 30.1845 42.6892 31.605 42.6878V42.6878Z" fill="#008C00"/>
<path d="M31.0016 55.078C32.6098 55.078 34.2193 55.078 35.8302 55.078C36.3942 55.078 36.6623 55.2965 36.6613 55.7428C36.6603 56.1891 36.4034 56.3984 35.8147 56.3984C32.5806 56.3984 29.3469 56.3984 26.1135 56.3984C25.5608 56.3984 25.2546 56.146 25.2639 55.7305C25.2731 55.315 25.5721 55.0811 26.1299 55.08C27.7525 55.0773 29.3764 55.0766 31.0016 55.078Z" fill="#008C00"/>
<path d="M44.207 56.3974C43.0265 56.3974 41.8441 56.3974 40.6678 56.3974C40.1192 56.3974 39.8531 56.1829 39.8459 55.7705C39.8377 55.3283 40.1192 55.0842 40.6678 55.0831C43.0457 55.079 45.4244 55.079 47.8037 55.0831C48.3246 55.0831 48.5907 55.314 48.5958 55.7418C48.601 56.1696 48.3287 56.3984 47.8047 56.4005C46.6027 56.4015 45.4048 56.3984 44.207 56.3974Z" fill="#008C00"/>
<path d="M68.3938 58.2912C68.9394 57.5053 69.4756 56.741 70.0037 55.9705C71.6173 53.6191 73.2299 51.2663 74.8415 48.9121C75.1589 48.4515 75.536 48.3427 75.875 48.5838C76.214 48.8249 76.2397 49.2189 75.9294 49.6693C73.8213 52.7375 71.7111 55.8047 69.5989 58.8708C69.415 59.1376 69.2527 59.4228 69.0462 59.67C68.7637 60.0086 68.4298 60.0804 68.0651 59.7645C66.444 58.374 64.8214 56.9845 63.1975 55.5961C62.8688 55.316 62.727 55.0062 63.0393 54.6276C63.3228 54.2849 63.6608 54.2788 64.0574 54.6163C65.3731 55.7332 66.6867 56.8525 67.9983 57.9742C68.1134 58.0717 68.2336 58.164 68.3938 58.2912Z" fill="#008C00"/>
</g>
<defs>
<clipPath id="clip0_258_65">
<rect width="66" height="47" fill="white" transform="translate(17 26)"/>
</clipPath>
</defs>
</svg>
